…
    pri %>% count(gene_id, variant_id) %>% arrange(desc(n))

    ## # A tibble: 89,603 x 3
    ##    gene_id            variant_id                 n
    ##    <chr>              <chr>                  <int>
    ##  1 ENSG00000005156.11 chr17_34980567_G_A_b38     5
    ##  2 ENSG00000006282.20 chr17_50547162_A_C_b38     5
    ##  3 ENSG00000007520.3  chr16_1351844_C_G_b38      5
    ##  4 ENSG00000008128.22 chr1_1689221_G_A_b38       5
    ##  5 ENSG00000008517.16 chr16_3065271_T_C_b38      5
    ##  6 ENSG00000013288.8  chr4_6609511_TG_T_b38      5
    ##  7 ENSG00000038219.12 chr4_13578908_A_G_b38      5
    ##  8 ENSG00000041802.10 chr3_194648850_C_A_b38     5
    ##  9 ENSG00000041802.10 chr3_194648851_C_A_b38     5
    ## 10 ENSG00000044090.8  chr6_43053781_G_A_b38      5
    ## # ... with 89,593 more rows
…
